Model Table
…
royer_tax_full <- readRDS("./data/processed/07_lm4_royer")
royer_tax_na_omit<-na.omit(royer_tax_full)  

### Replacing "Unknown" with ""
royer_tax_na_omit$scrubbed_family[royer_tax_na_omit$scrubbed_family=="Unknown"] <- ""

tally<-tally(royer_tax_na_omit$scrubbed_family)
##Making the data able to be analyzed for slopes
  ###Adding occurence counts to dataset
royer_tax_count<-royer_tax_na_omit%>%
  group_by(scrubbed_family)%>%
  mutate(count=n())
royer_tax_count

## # A tibble: 527 x 12
## # Groups:   scrubbed_family [99]
##    scrubbed_genus species avg_petiole_wid avg_LMA avg_LA log_lma
##    <chr>          <chr>              <dbl>   <dbl>  <dbl>   <dbl>
##  1 Cinnamomum     campho             1.46    91.4 1879.     4.52
##  2 Gordonia       sp                  1.76   125.  1858.     4.83
##  3 Nyssa          aquati             1.35    35.7 4967.     3.58
##  4 Pachygone      ovata               2.5     68.4 5045      4.23
##  5 Pimelea        sp                  0.74   240.    46.6    5.48
##  6 Rhododendron   sp                  1.44   105.  1717.     4.66
##  7 Spiraea        sp                  0.6     98.7  204.     4.59
##  8 Spiraea        sp                  0.97    42.9 1083.     3.76
##  9 Acacia         dorato             1.48   269.   858.     5.59
## 10 Acacia         dorato             1.48   269.   858.     5.59
## #  with 517 more rows, and 6 more variables: log_pet_leafarea <dbl>,
## #   class <chr>, superorder <chr>, order <chr>, scrubbed_family <chr>,
## #   count <int>
…
